{
    "title": "Dataset",
    "description": "Dataset with list (array) properties",
    "type": "object",
    "properties": {
        "keywords": {
            "type": "array",
            "items": { "type": "string" }
        },
        "booleans": {
            "type": "array",
            "items": { "type": "boolean" }
        },
        "integers": {
            "type": "array",
            "items": { "type": "integer" }
        },
        "floats": {
            "type": "array",
            "items": { "type": "number" }
        },
        "datetimes": {
            "type": "array",
            "items": { "type": "string", "format": "date-time" }
        },
        "dates": {
            "type": "array",
            "items": { "type": "string", "format": "date" }
        },
        "reference": {
            "type": "array",
            "items": { "type": "object", "properties": {} }
        },
        "reference_with_name": {
            "type": "array",
            "items": { "type": "object", "title": "event", "properties": {} }
        },
        "license": {
            "type": "array",
            "items": {
                "type": "string",
                "enum": ["CC-BY", "CC-BY-SA", "CC0", "restricted access"]
            }
        }
    }
}
